{
  apps: [{
    name: 'Daemon',
    script: './aeond',
    watch: false,
    args: '--rpc-bind-ip 172.26.0.5 --rpc-bind-port 11181 --restricted-rpc'
  },
  {
    name: 'Wallet',
    script: './simplewallet',
    watch: false,
    args: '--daemon-host 172.26.0.5 --daemon-port 11181 --password uGnWvuvG3XJGcTByOTCtXfqcMcaYz2hW9WyJ0Lcsgojz73yWVb --wallet-file /root/wallets/aeon-pool --rpc-bind-ip 172.26.0.5 --rpc-bind-port 11182'
  }]

}
